// Jest Snapshot v1, https://goo.gl/fbAQLP

exports[`IssueList renders IssueList component correctly 1`] = `
<div class="card" style="height: auto;">
  <div class="card__title">
    <div class="input-group input-group--append-icon input-group--hide-details input-group--text-field input-group--single-line primary--text">
      <label>Pesquisar</label>
      <div class="input-group__input">
        <input tabindex="0" aria-label="Pesquisar" type="text">
        <i aria-hidden="true" class="icon material-icons input-group__append-icon">search</i>
      </div>
      <div class="input-group__details"></div>
    </div>
  </div>
  <div class="elevation-1">
    <div class="table__overflow">
      <table class="datatable table">
        <thead>
          <tr>
            <th role="columnheader" scope="col" aria-label="#: Sorted ascending. Activate to sort descending." aria-sort="ascending" tabindex="0" class="column sortable active asc text-xs-left">#
              <i aria-hidden="true" class="icon material-icons" style="font-size: 16px;">arrow_upward</i>
            </th>
            <th role="columnheader" scope="col" aria-label="Título: Not sorted. Activate to sort ascending." aria-sort="none" tabindex="0" class="column sortable text-xs-left">Título
              <i aria-hidden="true" class="icon material-icons" style="font-size: 16px;">arrow_upward</i>
            </th>
            <th role="columnheader" scope="col" aria-label="Status: Not sorted. Activate to sort ascending." aria-sort="none" tabindex="0" class="column sortable text-xs-left">Status
              <i aria-hidden="true" class="icon material-icons" style="font-size: 16px;">arrow_upward</i>
            </th>
            <th role="columnheader" scope="col" aria-label="Labels: Not sorted. Activate to sort ascending." aria-sort="none" tabindex="0" class="column sortable text-xs-left">Labels
              <i aria-hidden="true" class="icon material-icons" style="font-size: 16px;">arrow_upward</i>
            </th>
            <th role="columnheader" scope="col" aria-label="Criadas em: Not sorted. Activate to sort ascending." aria-sort="none" tabindex="0" class="column sortable text-xs-left">Criadas em
              <i aria-hidden="true" class="icon material-icons" style="font-size: 16px;">arrow_upward</i>
            </th>
          </tr>
          <tr class="datatable__progress">
            <th colspan="5" class="column"></th>
          </tr>
        </thead>
        <tbody>
          <tr>
            <td>
              <a href="https://github.com/involvestecnologia/agilepromoterissues/issues/125" target="_blank"><strong>125</strong></a>
            </td>
            <td class="text-xs-right">Template de Importação para Produtos continua em PT-BR quando o Agile Promoter está configurado em outro idioma.</td>
            <td class="text-xs-right">closed</td>
            <td class="text-xs-right"><span tabindex="0" class="chip chip--small" style="background-color: rgb(254, 242, 192);"><span class="chip__content">
          equipe:ExD-Team
        </span></span><span tabindex="0" class="chip chip--small" style="background-color: rgb(255, 0, 0);"><span class="chip__content">
          motivo:defeito
        </span></span>
            </td>
            <td class="text-xs-right">11/14/2016</td>
          </tr>
          <tr>
            <td>
              <a href="https://github.com/involvestecnologia/agilepromoterissues/issues/150" target="_blank"><strong>150</strong></a>
            </td>
            <td class="text-xs-right">Ao editar um Afastamento não é possível reprocessar dados de visita</td>
            <td class="text-xs-right">closed</td>
            <td class="text-xs-right"><span tabindex="0" class="chip chip--small" style="background-color: rgb(255, 0, 0);"><span class="chip__content">
          ZENDESK
        </span></span><span tabindex="0" class="chip chip--small" style="background-color: rgb(254, 242, 192);"><span class="chip__content">
          equipe:Plataforma-Team
        </span></span><span tabindex="0" class="chip chip--small" style="background-color: rgb(255, 0, 0);"><span class="chip__content">
          motivo:defeito
        </span></span><span tabindex="0" class="chip chip--small" style="background-color: rgb(230, 230, 230);"><span class="chip__content">
          time:web
        </span></span>
            </td>
            <td class="text-xs-right">11/18/2016</td>
          </tr>
          <tr>
            <td>
              <a href="https://github.com/involvestecnologia/agilepromoterissues/issues/388" target="_blank"><strong>388</strong></a>
            </td>
            <td class="text-xs-right">Carregamento de recurso de forma não segura (sem HTTPS) exibe mensagem de alerta de página não segura</td>
            <td class="text-xs-right">closed</td>
            <td class="text-xs-right"><span tabindex="0" class="chip chip--small" style="background-color: rgb(254, 242, 192);"><span class="chip__content">
          equipe:ExD-Team
        </span></span><span tabindex="0" class="chip chip--small" style="background-color: rgb(255, 0, 0);"><span class="chip__content">
          motivo:defeito
        </span></span><span tabindex="0" class="chip chip--small" style="background-color: rgb(230, 230, 230);"><span class="chip__content">
          time:web
        </span></span>
            </td>
            <td class="text-xs-right">12/22/2016</td>
          </tr>
          <tr>
            <td>
              <a href="https://github.com/involvestecnologia/agilepromoterissues/issues/394" target="_blank"><strong>394</strong></a>
            </td>
            <td class="text-xs-right">Marcação do PDV fica atrás das coordenadas no mapa da tela Status Day</td>
            <td class="text-xs-right">closed</td>
            <td class="text-xs-right"><span tabindex="0" class="chip chip--small" style="background-color: rgb(254, 242, 192);"><span class="chip__content">
          equipe:ExD-Team
        </span></span><span tabindex="0" class="chip chip--small" style="background-color: rgb(255, 0, 0);"><span class="chip__content">
          motivo:defeito
        </span></span><span tabindex="0" class="chip chip--small" style="background-color: rgb(230, 230, 230);"><span class="chip__content">
          time:web
        </span></span>
            </td>
            <td class="text-xs-right">12/22/2016</td>
          </tr>
          <tr>
            <td>
              <a href="https://github.com/involvestecnologia/agilepromoterissues/issues/431" target="_blank"><strong>431</strong></a>
            </td>
            <td class="text-xs-right">Relacionamento entre filtro de Macro Regional e Regional - Filtrar regionais das macro regionais selecionadas</td>
            <td class="text-xs-right">closed</td>
            <td class="text-xs-right"><span tabindex="0" class="chip chip--small" style="background-color: rgb(255, 0, 0);"><span class="chip__content">
          ZENDESK
        </span></span><span tabindex="0" class="chip chip--small" style="background-color: rgb(254, 242, 192);"><span class="chip__content">
          equipe:ExD-Team
        </span></span><span tabindex="0" class="chip chip--small" style="background-color: rgb(255, 0, 0);"><span class="chip__content">
          motivo:defeito
        </span></span><span tabindex="0" class="chip chip--small" style="background-color: rgb(230, 230, 230);"><span class="chip__content">
          time:web
        </span></span>
            </td>
            <td class="text-xs-right">12/29/2016</td>
          </tr>
        </tbody>
      </table>
    </div>
    <div class="datatable table">
      <div class="datatable__actions">
        <div class="datatable__actions__select">Linhas por página:
          <div tabindex="0" data-uid="25" aria-label="Linhas por página:" role="combobox" class="input-group input-group--append-icon input-group--hide-details input-group--text-field input-group--select input-group--auto primary--text">
            <div class="input-group__input">
              <div class="input-group__selections" style="overflow: hidden;">
                <input aria-label="Linhas por página:" disabled="disabled" tabindex="-1" class="input-group--select__autocomplete" style="display: none;">
              </div>
              <div class="menu" style="display: inline-block;"></div>
              <i aria-hidden="true" class="icon material-icons input-group__append-icon input-group__icon-cb">arrow_drop_down</i>
            </div>
            <div class="input-group__details"></div>
          </div>
        </div>
        <div class="datatable__actions__range-controls">
          <div class="datatable__actions__pagination">
            Linhas 1 - 5 de 5
          </div>
          <button disabled="disabled" type="button" class="btn btn--disabled btn--flat btn--icon" aria-label="Previous page">
            <div class="btn__content">
              <i aria-hidden="true" class="icon material-icons">chevron_left</i>
            </div>
          </button>
          <button disabled="disabled" type="button" class="btn btn--disabled btn--flat btn--icon" aria-label="Next page">
            <div class="btn__content">
              <i aria-hidden="true" class="icon material-icons">chevron_right</i>
            </div>
          </button>
        </div>
      </div>
    </div>
  </div>
</div>
`;
